{
  "allOf": [
    {
      "$ref": "./TextMessage.json"
    }
  ],
  "examples": [
    {
      "uniqueId": "abc123",
      "created": "2022-02-10 22:10:30",
      "messageType": "\\iDimensionz\\AppServer\\Message\\Base\\SystemMessage",
      "sentDate": "2022-02-10 22:12:30",
      "userName": "Joe",
      "message": "This Sassy server is AWESOME!"
    }
  ]
}